user_id	gender	last_login	registration	age
1	1	2012-05-25 11:20:00.0	2005-04-03 00:00:00.0	26
2	0	2012-05-25 23:08:00.0	2007-11-30 00:00:00.0	0
3	1	2012-05-10 18:05:00.0	2010-05-23 00:00:00.0	29
4	0	2011-12-29 12:25:00.0	2011-12-29 00:00:00.0	26
5	1	2012-05-25 01:10:00.0	2006-05-29 00:00:00.0	26
6	0	2012-05-25 20:40:00.0	2007-12-15 00:00:00.0	38
7	0	2012-02-03 15:36:00.0	2004-09-10 00:00:00.0	22
8	1	2012-04-15 11:52:00.0	2003-11-26 00:00:00.0	26
9	0	2012-03-03 16:57:00.0	2005-11-30 00:00:00.0	0
10	0	2012-05-14 21:54:00.0	2005-10-07 00:00:00.0	22
11	0	2012-05-21 16:31:00.0	2006-11-11 00:00:00.0	22
12	1	2012-04-30 16:24:00.0	2005-09-21 00:00:00.0	26
13	0	2012-03-26 16:40:00.0	2007-10-24 00:00:00.0	0
14	0	2012-05-25 23:19:41.0	2004-12-08 00:00:00.0	0
15	1	2012-05-25 17:09:00.0	2006-02-10 00:00:00.0	26
16	1	2012-05-25 23:19:40.0	2008-05-18 00:00:00.0	23
17	0	2012-05-25 09:40:00.0	2006-10-21 00:00:00.0	27
18	1	2012-05-02 21:19:00.0	2007-12-13 00:00:00.0	18
19	1	2012-05-25 19:34:00.0	2007-03-23 00:00:00.0	21
20	0	2012-05-22 12:59:00.0	2008-07-27 00:00:00.0	20
21	0	2012-05-25 23:15:00.0	2007-12-31 00:00:00.0	17
22	0	2012-05-23 14:46:00.0	2007-12-05 00:00:00.0	19
23	0	2012-05-23 19:47:00.0	2007-04-11 00:00:00.0	0
24	1	2012-05-18 20:31:00.0	2007-05-14 00:00:00.0	26
25	0	2012-04-30 19:36:00.0	2008-05-28 00:00:00.0	20
26	0	2012-05-11 22:00:00.0	2007-04-18 00:00:00.0	21
27	1	2012-05-05 13:17:00.0	2008-08-27 00:00:00.0	23
28	1	2012-04-17 21:54:00.0	2007-02-14 00:00:00.0	19
29	0	2012-05-25 16:34:00.0	2007-01-12 00:00:00.0	19
30	1	2012-05-25 15:12:00.0	2008-10-20 00:00:00.0	21
31	1	2012-02-18 13:20:00.0	2007-01-01 00:00:00.0	24
32	1	2012-05-13 22:52:00.0	2008-10-21 00:00:00.0	21
33	1	2012-05-13 11:22:00.0	2008-01-02 00:00:00.0	22
34	1	2012-05-15 09:18:00.0	2007-01-24 00:00:00.0	23
35	0	2012-05-25 08:53:00.0	2008-09-13 00:00:00.0	21
36	1	2011-11-17 16:23:00.0	2008-02-12 00:00:00.0	28
37	1	2012-05-25 23:00:00.0	2008-09-17 00:00:00.0	20
38	1	2012-05-25 22:39:00.0	2008-05-24 00:00:00.0	22
39	1	2012-05-25 22:51:00.0	2007-11-29 00:00:00.0	18
40	1	2012-05-23 15:54:00.0	2008-03-23 00:00:00.0	0
41	1	2012-05-13 21:52:00.0	2008-03-04 00:00:00.0	16
42	1	2012-05-24 17:15:00.0	2007-11-23 00:00:00.0	22
43	1	2012-05-10 14:16:00.0	2008-04-07 00:00:00.0	19
44	1	2012-04-20 18:16:00.0	2007-10-29 00:00:00.0	0
45	0	2012-05-25 22:04:00.0	2007-11-05 00:00:00.0	21
46	0	2011-10-29 03:17:00.0	2008-03-17 00:00:00.0	21
47	0	2012-05-25 15:10:00.0	2007-11-11 00:00:00.0	19
48	1	2012-05-23 22:27:00.0	2008-03-18 00:00:00.0	0
49	1	2012-05-23 22:58:00.0	2008-03-04 00:00:00.0	23
50	0	2012-05-24 18:23:00.0	2007-08-14 00:00:00.0	0
51	1	2012-05-14 19:25:00.0	2007-06-27 00:00:00.0	21
52	1	2012-05-25 21:41:00.0	2007-06-11 00:00:00.0	22
53	1	2012-04-11 16:54:00.0	2007-06-05 00:00:00.0	20
54	1	2012-05-25 19:31:00.0	2007-06-05 00:00:00.0	0
55	0	2012-05-24 10:29:00.0	2007-07-24 00:00:00.0	21
56	0	2012-05-09 20:39:00.0	2007-07-28 00:00:00.0	19
57	0	2012-05-24 00:25:00.0	2007-08-12 00:00:00.0	19
58	0	2012-05-18 06:59:00.0	2007-07-31 00:00:00.0	0
59	1	2012-05-24 17:09:00.0	2008-11-04 00:00:00.0	22
60	0	2012-05-24 19:42:00.0	2008-11-08 00:00:00.0	19
61	0	2012-04-11 23:40:00.0	2009-10-27 00:00:00.0	23
62	1	2012-05-18 12:02:00.0	2005-12-06 00:00:00.0	22
63	0	2012-05-25 16:40:00.0	2008-02-14 00:00:00.0	0
64	1	2012-05-21 14:22:00.0	2005-11-05 00:00:00.0	0
65	1	2012-03-12 18:55:00.0	2009-10-14 00:00:00.0	0
66	0	2012-05-19 00:54:00.0	2008-01-30 00:00:00.0	0
67	1	2012-05-25 18:56:00.0	2008-01-19 00:00:00.0	23
68	0	2012-05-15 16:53:00.0	2009-08-19 00:00:00.0	0
69	1	2012-05-24 22:59:00.0	2006-02-02 00:00:00.0	22
70	0	2012-05-22 08:20:00.0	2009-12-19 00:00:00.0	0
71	1	2012-05-25 19:31:00.0	2005-09-23 00:00:00.0	22
72	0	2012-05-12 21:04:00.0	2008-02-04 00:00:00.0	19
73	0	2012-03-27 20:22:00.0	2010-01-25 00:00:00.0	18
74	0	2012-05-18 20:09:00.0	2005-03-31 00:00:00.0	27
75	1	2012-05-16 11:09:00.0	2005-02-28 00:00:00.0	0
76	1	2012-05-25 23:19:42.0	2009-12-25 00:00:00.0	0
77	1	2012-05-11 14:05:00.0	2005-08-01 00:00:00.0	23
78	1	2012-05-25 14:44:00.0	2005-09-14 00:00:00.0	20
79	1	2012-04-08 20:46:00.0	2005-09-10 00:00:00.0	23
80	0	2011-09-03 11:00:00.0	2005-08-31 00:00:00.0	24
81	1	2012-05-16 19:28:00.0	2009-07-05 00:00:00.0	25
82	0	2012-05-16 18:05:00.0	2006-02-19 00:00:00.0	20
83	0	2012-05-25 17:06:00.0	2006-10-14 00:00:00.0	20
84	0	2012-05-13 20:42:00.0	2006-10-14 00:00:00.0	19
85	0	2012-05-25 16:27:00.0	2006-10-07 00:00:00.0	21
86	1	2012-04-17 15:01:00.0	2008-02-25 00:00:00.0	24
87	1	2012-04-19 15:04:00.0	2006-10-19 00:00:00.0	23
88	0	2012-05-24 11:13:00.0	2008-01-09 00:00:00.0	18
89	1	2012-05-14 23:18:00.0	2006-11-23 00:00:00.0	19
90	0	2012-05-16 00:07:00.0	2008-02-28 00:00:00.0	18
91	1	2012-05-23 17:01:00.0	2008-01-07 00:00:00.0	23
92	0	2012-05-18 08:38:00.0	2007-11-16 00:00:00.0	22
93	1	2012-05-25 15:13:00.0	2009-02-21 00:00:00.0	21
94	1	2012-05-21 16:32:00.0	2009-05-31 00:00:00.0	20
95	1	2012-05-25 15:18:00.0	2006-05-04 00:00:00.0	23
96	0	2012-05-25 13:19:00.0	2006-02-23 00:00:00.0	21
97	1	2012-05-20 04:02:00.0	2009-05-25 00:00:00.0	23
98	0	2012-05-18 05:28:00.0	2009-04-20 00:00:00.0	0
99	0	2012-05-25 17:06:00.0	2009-03-31 00:00:00.0	18
100	0	2012-05-13 13:53:00.0	2006-07-01 00:00:00.0	21
101	1	2012-05-25 23:11:00.0	2006-07-01 00:00:00.0	20
102	1	2011-06-24 05:26:00.0	2006-12-04 00:00:00.0	0
103	1	2012-05-01 23:33:00.0	2008-02-17 00:00:00.0	0
104	1	2011-08-08 12:44:00.0	2008-09-17 00:00:00.0	0
105	1	2012-05-23 10:39:00.0	2009-02-21 00:00:00.0	23
106	1	2012-04-18 23:36:00.0	2009-02-07 00:00:00.0	22
107	1	2012-03-14 21:50:00.0	2009-01-22 00:00:00.0	24
108	1	2012-05-23 10:30:00.0	2009-07-05 00:00:00.0	0
109	0	2012-05-16 18:28:00.0	2009-08-30 00:00:00.0	0
110	0	2012-05-25 20:19:00.0	2010-01-07 00:00:00.0	21
111	1	2012-05-18 00:19:00.0	2009-11-25 00:00:00.0	18
112	1	2012-05-25 23:14:00.0	2009-01-03 00:00:00.0	21
113	1	2012-05-23 20:13:00.0	2008-12-24 00:00:00.0	22
114	1	2012-05-25 20:39:00.0	2008-05-22 00:00:00.0	0
115	1	2012-04-16 21:13:00.0	2008-04-19 00:00:00.0	20
116	1	2012-05-08 15:34:00.0	2008-04-07 00:00:00.0	19
117	1	2012-05-19 20:19:00.0	2008-06-13 00:00:00.0	21
118	1	2012-05-25 20:00:00.0	2008-07-08 00:00:00.0	29
119	0	2012-05-25 10:09:00.0	2008-09-25 00:00:00.0	20
120	1	2012-04-10 17:34:00.0	2008-07-30 00:00:00.0	0
121	1	2012-05-06 13:33:00.0	2008-04-01 00:00:00.0	0
122	1	2012-05-23 23:56:00.0	2007-09-06 00:00:00.0	0
123	1	2012-05-25 22:03:00.0	2006-09-11 00:00:00.0	21
124	1	2012-05-24 23:43:00.0	2006-09-11 00:00:00.0	21
125	1	2012-05-25 11:52:00.0	2006-09-03 00:00:00.0	0
126	1	2012-05-25 05:35:00.0	2006-08-31 00:00:00.0	0
127	1	2012-05-02 19:34:00.0	2006-06-30 00:00:00.0	21
128	1	2012-05-25 18:56:00.0	2006-10-23 00:00:00.0	21
129	0	2012-04-13 23:19:00.0	2006-10-25 00:00:00.0	19
130	1	2011-07-05 02:27:00.0	2006-12-31 00:00:00.0	21
131	1	2012-05-11 20:05:00.0	2007-01-01 00:00:00.0	22
132	1	2012-05-23 22:55:00.0	2006-12-29 00:00:00.0	23
133	1	2012-05-25 20:31:00.0	2006-12-06 00:00:00.0	22
134	1	2012-05-23 06:52:00.0	2006-11-21 00:00:00.0	21
135	0	2012-05-25 23:19:50.0	2006-05-29 00:00:00.0	21
136	1	2012-05-25 18:18:00.0	2006-05-17 00:00:00.0	22
137	0	2012-05-22 00:49:00.0	2005-10-12 00:00:00.0	20
138	0	2012-05-25 22:24:00.0	2005-11-25 00:00:00.0	29
139	1	2012-05-25 18:50:00.0	2005-07-10 00:00:00.0	0
140	0	2012-05-17 20:32:00.0	2005-05-28 00:00:00.0	21
141	0	2012-05-13 23:47:00.0	2005-12-24 00:00:00.0	23
142	1	2012-05-25 19:26:00.0	2005-12-29 00:00:00.0	20
143	0	2012-03-19 12:20:00.0	2006-02-18 00:00:00.0	21
144	1	2012-02-21 20:10:00.0	2006-02-17 00:00:00.0	22
145	1	2012-05-17 07:30:00.0	2006-02-11 00:00:00.0	21
146	0	2012-05-25 21:13:00.0	2006-01-28 00:00:00.0	20
147	0	2012-05-25 21:23:00.0	2007-01-21 00:00:00.0	0
148	1	2012-05-25 19:41:00.0	2007-01-29 00:00:00.0	0
149	1	2012-05-25 15:25:00.0	2007-11-10 00:00:00.0	27
150	1	2012-04-17 02:10:00.0	2007-11-13 00:00:00.0	20
151	1	2012-05-24 19:41:00.0	2007-10-05 00:00:00.0	0
152	0	2012-05-23 09:23:00.0	2007-09-30 00:00:00.0	22
153	1	2012-05-24 13:34:00.0	2007-09-28 00:00:00.0	21
154	0	2011-08-10 22:19:00.0	2007-11-19 00:00:00.0	21
155	1	2011-12-25 18:29:00.0	2007-11-27 00:00:00.0	20
156	0	2012-02-11 10:53:00.0	2008-02-03 00:00:00.0	19
157	0	2012-05-21 19:59:00.0	2008-01-14 00:00:00.0	0
158	0	2012-05-23 15:56:00.0	2008-01-14 00:00:00.0	0
159	1	2012-05-25 16:44:00.0	2008-01-06 00:00:00.0	22
160	1	2012-05-25 09:46:00.0	2004-03-22 00:00:00.0	24
161	0	2012-05-21 15:31:00.0	2007-08-23 00:00:00.0	0
162	1	2012-05-03 20:05:00.0	2007-02-18 00:00:00.0	22
163	1	2012-04-04 13:44:00.0	2007-03-13 00:00:00.0	22
164	1	2012-05-25 12:14:00.0	2007-02-15 00:00:00.0	0
165	1	2012-05-25 12:44:00.0	2007-02-14 00:00:00.0	23
166	0	2012-03-06 13:44:00.0	2007-02-05 00:00:00.0	21
167	0	2012-05-25 20:12:00.0	2007-04-03 00:00:00.0	18
168	0	2012-05-25 22:19:00.0	2007-04-03 00:00:00.0	0
169	0	2012-05-25 17:47:00.0	2007-07-29 00:00:00.0	0
170	0	2012-05-22 18:21:00.0	2007-05-25 00:00:00.0	19
171	0	2012-05-22 17:34:00.0	2007-05-15 00:00:00.0	18
172	1	2012-05-24 13:04:00.0	2007-04-24 00:00:00.0	20
173	0	2012-05-08 12:08:00.0	2008-02-10 00:00:00.0	0
174	0	2012-05-25 20:45:00.0	2006-04-23 00:00:00.0	23
175	0	2011-12-02 12:35:00.0	2006-11-29 00:00:00.0	22
176	0	2012-05-25 22:15:00.0	2005-06-21 00:00:00.0	23
177	0	2012-05-25 20:41:00.0	2008-07-04 00:00:00.0	22
178	0	2012-05-25 22:55:00.0	2007-05-21 00:00:00.0	23
179	0	2011-09-17 16:33:00.0	2007-06-04 00:00:00.0	21
180	0	2012-01-08 13:46:00.0	2007-07-01 00:00:00.0	22
181	1	2012-04-28 16:09:00.0	2005-10-01 00:00:00.0	26
182	0	2011-12-19 11:03:00.0	2008-09-03 00:00:00.0	25
183	1	2012-05-14 23:25:00.0	2006-08-25 00:00:00.0	26
184	1	2012-05-10 14:58:00.0	2004-11-12 00:00:00.0	25
185	0	2012-05-25 23:19:49.0	2005-05-21 00:00:00.0	20
186	0	2011-08-24 20:41:00.0	2005-04-20 00:00:00.0	21
187	0	2012-05-16 22:52:00.0	2011-01-05 00:00:00.0	22
188	0	2012-03-16 00:37:00.0	2004-10-14 00:00:00.0	26
189	1	2012-04-10 23:34:00.0	2010-04-07 00:00:00.0	0
190	1	2012-04-27 21:55:00.0	2007-04-25 00:00:00.0	20
191	1	2012-02-01 23:24:00.0	2007-03-27 00:00:00.0	23
192	0	2012-05-24 22:16:00.0	2004-03-29 00:00:00.0	22
193	0	2012-05-21 16:25:00.0	2007-02-21 00:00:00.0	21
194	0	2012-04-27 12:49:00.0	2006-10-03 00:00:00.0	0
195	1	2012-05-24 19:58:00.0	2009-09-27 00:00:00.0	0
196	0	2012-05-25 10:25:00.0	2009-07-12 00:00:00.0	15
197	1	2012-05-25 21:19:00.0	2006-01-25 00:00:00.0	22
198	1	2012-05-17 22:53:00.0	2002-02-10 00:00:00.0	32
199	0	2012-05-23 11:23:00.0	2007-06-24 00:00:00.0	0
200	0	2012-05-25 18:20:00.0	2007-06-23 00:00:00.0	20
201	0	2012-05-22 18:48:00.0	2007-02-27 00:00:00.0	22
202	1	2012-05-07 15:44:00.0	2006-09-06 00:00:00.0	24
203	0	2012-05-06 20:03:00.0	2007-02-12 00:00:00.0	21
204	1	2012-05-22 22:37:00.0	2006-08-22 00:00:00.0	22
205	1	2012-05-24 23:34:00.0	2006-05-06 00:00:00.0	22
206	1	2012-03-01 15:28:00.0	2007-02-02 00:00:00.0	22
207	0	2012-04-27 14:49:00.0	2006-10-08 00:00:00.0	22
208	0	2012-05-22 17:25:00.0	2006-08-03 00:00:00.0	20
209	1	2012-05-24 08:56:00.0	2005-06-21 00:00:00.0	22
210	0	2012-05-25 13:49:00.0	2005-06-07 00:00:00.0	22
211	1	2012-05-19 14:25:00.0	2007-10-28 00:00:00.0	22
212	0	2012-05-17 14:11:00.0	2006-03-25 00:00:00.0	21
213	0	2012-05-21 16:21:00.0	2004-11-05 00:00:00.0	21
214	1	2012-05-25 19:27:00.0	2004-09-06 00:00:00.0	0
215	1	2012-05-22 17:42:00.0	2005-05-15 00:00:00.0	21
216	1	2012-05-24 00:57:00.0	2004-08-31 00:00:00.0	0
217	0	2012-05-25 23:19:48.0	2006-12-31 00:00:00.0	22
218	1	2012-05-25 19:43:00.0	2004-09-27 00:00:00.0	26
219	1	2012-05-18 11:49:00.0	2005-04-13 00:00:00.0	22
220	1	2012-05-25 12:49:00.0	2005-03-25 00:00:00.0	0
221	0	2012-02-13 18:47:00.0	2007-12-05 00:00:00.0	22
222	1	2012-03-12 19:34:00.0	2006-02-14 00:00:00.0	27
223	1	2012-04-13 22:59:00.0	2004-02-02 00:00:00.0	0
224	1	2012-05-25 01:55:00.0	2006-02-07 00:00:00.0	21
225	0	2012-02-29 19:01:00.0	2006-11-26 00:00:00.0	22
226	0	2012-05-25 11:19:00.0	2003-12-03 00:00:00.0	26
227	1	2012-05-25 23:19:47.0	2007-09-06 00:00:00.0	0
228	1	2012-04-11 23:50:00.0	2006-01-24 00:00:00.0	22
229	1	2012-05-21 13:01:00.0	2006-01-24 00:00:00.0	21
230	0	2012-05-22 22:24:00.0	2006-01-24 00:00:00.0	22
231	0	2012-05-08 13:40:00.0	2005-12-23 00:00:00.0	22
232	0	2012-04-26 18:05:00.0	2004-01-22 00:00:00.0	22
233	0	2012-05-23 19:58:00.0	2005-05-23 00:00:00.0	0
234	0	2012-05-24 11:00:00.0	2006-12-14 00:00:00.0	21
235	0	2012-04-08 01:00:00.0	2005-05-02 00:00:00.0	21
236	1	2012-05-25 18:23:00.0	2007-08-08 00:00:00.0	24
237	0	2012-05-24 20:15:00.0	2011-07-25 00:00:00.0	22
238	0	2012-05-13 16:54:00.0	2007-10-18 00:00:00.0	19
239	0	2011-05-31 18:48:00.0	2011-04-28 00:00:00.0	11
240	0	2012-05-22 07:55:00.0	2011-02-04 00:00:00.0	13
241	0	2012-05-25 14:22:00.0	2008-10-02 00:00:00.0	21
242	1	2012-05-25 22:08:00.0	2007-02-27 00:00:00.0	25
243	0	2012-05-24 21:43:00.0	2006-02-02 00:00:00.0	22
244	0	2012-05-11 19:29:00.0	2010-02-11 00:00:00.0	10
245	1	2011-08-15 21:19:00.0	2009-06-23 00:00:00.0	23
246	1	2012-02-24 20:40:00.0	2009-12-25 00:00:00.0	0
247	0	2012-04-06 12:05:00.0	2009-10-30 00:00:00.0	15
248	1	2012-05-22 17:04:00.0	2009-11-01 00:00:00.0	30
249	0	2012-04-03 11:56:00.0	2009-08-31 00:00:00.0	13
250	0	2012-03-06 14:27:00.0	2009-10-22 00:00:00.0	10
251	0	2011-09-20 08:27:00.0	2009-10-21 00:00:00.0	14
252	0	2012-04-15 15:53:00.0	2005-12-01 00:00:00.0	22
253	0	2012-05-23 18:01:00.0	2007-10-17 00:00:00.0	21
254	0	2012-05-06 15:04:00.0	2005-07-05 00:00:00.0	0
255	0	2011-11-23 08:16:00.0	2006-05-15 00:00:00.0	25
256	1	2012-01-23 19:34:00.0	2004-10-15 00:00:00.0	24
257	0	2012-05-25 21:58:00.0	2006-04-27 00:00:00.0	19
258	1	2012-04-30 01:29:00.0	2009-01-11 00:00:00.0	25
259	0	2012-05-15 20:53:00.0	2005-06-21 00:00:00.0	22
260	1	2011-05-31 15:09:00.0	2009-04-22 00:00:00.0	15
261	1	2012-05-02 14:26:00.0	2007-07-05 00:00:00.0	25
262	0	2012-05-24 19:22:00.0	2005-10-27 00:00:00.0	21
263	1	2012-05-18 11:47:00.0	2006-10-16 00:00:00.0	18
264	0	2012-04-11 11:42:00.0	2008-11-30 00:00:00.0	22
265	1	2012-05-24 22:51:00.0	2007-01-13 00:00:00.0	22
266	1	2012-05-11 16:08:00.0	2006-12-06 00:00:00.0	23
267	1	2012-03-16 13:08:00.0	2005-11-22 00:00:00.0	28
268	1	2012-05-11 20:24:00.0	2007-05-21 00:00:00.0	22
269	1	2012-02-15 00:28:00.0	2007-05-26 00:00:00.0	28
270	0	2012-05-25 21:53:00.0	2006-09-14 00:00:00.0	22
271	0	2012-05-25 21:06:00.0	2005-09-22 00:00:00.0	21
272	0	2012-05-25 22:56:00.0	2005-09-22 00:00:00.0	22
273	1	2012-04-28 20:09:00.0	2005-09-22 00:00:00.0	28
274	1	2012-05-25 23:19:48.0	2006-11-07 00:00:00.0	22
275	0	2012-05-12 17:35:00.0	2007-02-16 00:00:00.0	21
276	0	2012-02-09 19:24:00.0	2006-06-19 00:00:00.0	0
277	1	2012-05-08 21:01:00.0	2008-12-21 00:00:00.0	0
278	0	2012-05-19 18:20:00.0	2006-08-12 00:00:00.0	20
279	0	2012-05-10 20:16:00.0	2006-04-21 00:00:00.0	21
280	0	2012-05-25 19:54:00.0	2006-10-10 00:00:00.0	0
281	1	2011-11-07 18:05:00.0	2005-07-11 00:00:00.0	23
282	1	2012-05-22 22:25:00.0	2008-03-27 00:00:00.0	22
283	1	2012-05-20 11:13:00.0	2007-10-22 00:00:00.0	0
284	1	2012-05-16 11:54:00.0	2004-09-20 00:00:00.0	24
285	0	2012-05-23 19:34:00.0	2007-12-29 00:00:00.0	0
286	1	2012-05-06 09:25:00.0	2007-12-27 00:00:00.0	0
287	1	2012-05-25 08:35:00.0	2004-06-08 00:00:00.0	0
288	1	2012-05-25 20:01:00.0	2007-12-16 00:00:00.0	32
289	1	2012-05-23 19:56:00.0	2009-01-19 00:00:00.0	15
290	1	2012-04-15 18:18:00.0	2008-10-08 00:00:00.0	23
291	0	2012-05-22 22:26:00.0	2006-02-02 00:00:00.0	0
292	1	2012-05-07 20:53:00.0	2009-01-17 00:00:00.0	25
293	0	2012-05-22 17:11:00.0	2006-01-27 00:00:00.0	21
294	1	2012-04-15 21:28:00.0	2009-01-11 00:00:00.0	24
295	0	2012-05-09 17:03:00.0	2009-03-30 00:00:00.0	0
296	0	2012-05-25 21:57:00.0	2011-03-25 00:00:00.0	0
297	1	2012-05-25 12:02:00.0	2001-09-23 00:00:00.0	35
298	0	2012-05-20 20:28:00.0	2006-10-03 00:00:00.0	21
299	1	2012-05-25 09:58:00.0	2005-11-14 00:00:00.0	0
300	1	2012-05-07 14:37:00.0	2007-11-09 00:00:00.0	19
301	1	2012-05-21 21:53:00.0	2008-02-18 00:00:00.0	0
302	1	2012-05-25 23:19:49.0	2005-12-12 00:00:00.0	24
303	1	2012-05-24 12:19:00.0	2006-08-31 00:00:00.0	0
304	1	2012-05-25 16:23:00.0	2005-10-15 00:00:00.0	23
305	1	2012-05-20 09:52:00.0	2005-11-22 00:00:00.0	27
306	1	2012-05-18 16:37:00.0	2007-05-29 00:00:00.0	25
307	0	2012-05-24 11:50:00.0	2007-06-06 00:00:00.0	23
308	0	2012-05-24 10:31:00.0	2006-09-27 00:00:00.0	20
309	0	2012-04-14 16:58:00.0	2006-09-13 00:00:00.0	22
310	1	2012-05-24 23:32:00.0	2006-06-30 00:00:00.0	21
311	1	2012-05-23 23:13:00.0	2005-09-18 00:00:00.0	22
312	1	2012-05-25 23:19:55.0	2005-09-14 00:00:00.0	22
313	0	2012-04-02 23:05:00.0	2006-06-22 00:00:00.0	21
314	0	2012-04-14 14:30:00.0	2006-11-03 00:00:00.0	22
315	1	2012-05-25 19:29:00.0	2007-02-07 00:00:00.0	22
316	0	2012-02-27 10:56:00.0	2006-05-30 00:00:00.0	22
317	1	2012-05-25 21:25:00.0	2005-08-04 00:00:00.0	0
318	1	2012-05-19 23:28:00.0	2005-07-15 00:00:00.0	22
319	1	2012-04-13 23:27:00.0	2006-05-17 00:00:00.0	22
320	1	2012-05-25 12:48:00.0	2006-10-02 00:00:00.0	22
321	1	2011-11-30 01:41:00.0	2005-06-30 00:00:00.0	23
322	1	2012-03-23 13:07:00.0	2006-09-29 00:00:00.0	22
323	0	2012-04-03 23:38:00.0	2007-01-12 00:00:00.0	21
324	0	2012-04-07 09:33:00.0	2007-01-11 00:00:00.0	21
325	1	2012-01-09 20:56:00.0	2004-09-23 00:00:00.0	23
326	1	2012-04-18 14:08:00.0	2004-09-17 00:00:00.0	0
327	0	2012-04-23 20:30:00.0	2004-12-15 00:00:00.0	21
328	0	2012-04-24 17:28:00.0	2005-05-12 00:00:00.0	0
329	1	2012-05-21 19:17:00.0	2004-10-12 00:00:00.0	23
330	1	2011-12-07 15:54:00.0	2004-07-13 00:00:00.0	23
331	0	2012-04-25 22:20:00.0	2006-03-11 00:00:00.0	22
332	1	2012-05-25 12:49:00.0	2008-06-16 00:00:00.0	22
333	0	2012-05-24 22:39:00.0	2006-02-19 00:00:00.0	22
334	0	2012-04-29 16:49:00.0	2006-02-10 00:00:00.0	22
335	0	2012-05-15 15:20:00.0	2005-02-10 00:00:00.0	0
336	1	2012-05-17 15:39:00.0	2006-01-29 00:00:00.0	22
337	1	2012-05-25 22:31:00.0	2005-12-28 00:00:00.0	0
338	0	2012-05-24 08:34:00.0	2005-12-26 00:00:00.0	0
339	0	2012-05-23 20:16:00.0	2005-12-19 00:00:00.0	22
340	1	2012-05-15 12:08:00.0	2008-04-16 00:00:00.0	0
341	1	2012-02-13 17:31:00.0	2005-06-02 00:00:00.0	22
342	1	2012-05-25 22:52:00.0	2009-03-13 00:00:00.0	0
343	1	2012-05-25 18:20:00.0	2002-07-25 00:00:00.0	23
344	0	2012-05-25 19:51:00.0	2004-09-21 00:00:00.0	22
345	0	2012-05-25 10:48:00.0	2004-12-14 00:00:00.0	22
346	1	2012-04-30 13:41:00.0	2006-05-30 00:00:00.0	21
347	0	2012-05-25 22:55:00.0	2006-01-14 00:00:00.0	21
348	0	2012-05-20 13:50:00.0	2007-10-06 00:00:00.0	0
349	0	2011-11-12 22:27:00.0	2003-04-07 00:00:00.0	0
350	1	2012-05-23 22:49:00.0	2006-09-22 00:00:00.0	0
351	0	2012-05-22 20:39:00.0	2006-04-07 00:00:00.0	25
352	0	2012-05-24 21:20:00.0	2006-03-28 00:00:00.0	24
353	0	2012-05-25 09:06:00.0	2005-08-27 00:00:00.0	26
354	0	2012-04-15 18:00:00.0	2008-10-26 00:00:00.0	0
355	1	2012-05-23 15:45:00.0	2008-06-09 00:00:00.0	20
356	1	2012-05-08 07:32:00.0	2006-11-04 00:00:00.0	26
357	0	2012-05-23 20:24:00.0	2008-03-19 00:00:00.0	21
358	0	2012-05-05 12:04:00.0	2007-08-04 00:00:00.0	22
359	0	2011-11-29 15:39:00.0	2008-03-28 00:00:00.0	21
360	0	2012-05-24 20:44:00.0	2007-03-22 00:00:00.0	0
361	0	2012-05-23 18:57:00.0	2006-12-18 00:00:00.0	0
362	0	2012-05-25 21:32:00.0	2007-08-10 00:00:00.0	24
363	1	2012-05-25 23:19:59.0	2008-10-29 00:00:00.0	29
364	0	2012-03-07 18:10:00.0	2003-07-05 00:00:00.0	0
365	0	2011-10-09 15:53:00.0	2005-07-06 00:00:00.0	26
366	0	2012-03-15 20:31:00.0	2003-05-27 00:00:00.0	26
367	1	2012-05-17 15:06:00.0	2003-05-20 00:00:00.0	26
368	1	2012-03-13 21:34:00.0	2003-05-19 00:00:00.0	0
369	1	2012-05-24 10:58:00.0	2005-01-21 00:00:00.0	25
370	1	2012-05-25 23:05:00.0	2004-12-02 00:00:00.0	0
371	0	2012-05-11 21:02:00.0	2008-12-01 00:00:00.0	25
372	0	2012-05-21 16:07:00.0	2005-07-04 00:00:00.0	26
373	1	2012-05-06 22:31:00.0	2005-02-20 00:00:00.0	25
374	1	2012-05-20 20:53:00.0	2005-04-03 00:00:00.0	23
375	0	2012-05-20 11:16:00.0	2011-03-27 00:00:00.0	19
376	0	2012-05-25 20:45:00.0	2008-03-16 00:00:00.0	21
377	0	2011-07-12 15:47:00.0	2011-04-20 00:00:00.0	24
378	0	2012-05-10 11:49:00.0	2008-04-23 00:00:00.0	0
379	1	2012-05-24 21:17:00.0	2006-08-07 00:00:00.0	27
380	0	2012-05-25 23:19:54.0	2005-08-04 00:00:00.0	29
381	1	2012-05-19 23:05:00.0	2005-05-31 00:00:00.0	24
382	0	2012-05-06 20:07:00.0	2004-07-15 00:00:00.0	26
383	1	2012-05-25 18:55:00.0	2004-06-11 00:00:00.0	24
384	1	2012-05-14 00:02:00.0	2005-12-09 00:00:00.0	25
385	0	2012-05-25 15:55:00.0	2006-09-25 00:00:00.0	25
386	0	2012-03-15 11:28:00.0	2007-03-29 00:00:00.0	0
387	0	2012-05-25 22:01:00.0	2007-03-24 00:00:00.0	24
388	0	2012-05-24 22:59:00.0	2007-01-07 00:00:00.0	18
389	0	2012-05-07 11:55:00.0	2007-04-17 00:00:00.0	29
390	0	2012-05-25 22:52:00.0	2006-02-02 00:00:00.0	25
391	0	2012-01-09 18:08:00.0	2008-06-11 00:00:00.0	27
392	0	2012-05-14 15:26:00.0	2008-03-10 00:00:00.0	20
393	1	2012-05-23 13:23:00.0	2009-08-09 00:00:00.0	0
394	0	2012-05-24 22:51:00.0	2008-04-18 00:00:00.0	27
395	0	2012-05-25 12:18:00.0	2008-06-19 00:00:00.0	0
396	1	2012-05-09 09:36:00.0	2007-05-19 00:00:00.0	34
397	0	2012-05-25 07:52:00.0	2007-04-13 00:00:00.0	26
398	1	2012-04-09 20:37:00.0	2007-02-21 00:00:00.0	26
399	1	2012-05-07 22:12:00.0	2006-06-09 00:00:00.0	22
400	1	2012-04-15 21:05:00.0	2006-05-10 00:00:00.0	25
401	0	2012-05-25 20:54:00.0	2008-12-08 00:00:00.0	0
402	0	2012-01-24 13:55:00.0	2007-01-21 00:00:00.0	26
403	1	2012-04-14 13:18:00.0	2006-07-23 00:00:00.0	27
404	1	2012-05-17 17:40:00.0	2005-01-05 00:00:00.0	27
405	1	2012-04-09 11:45:00.0	2007-10-17 00:00:00.0	25
406	0	2012-05-25 08:59:00.0	2004-12-06 00:00:00.0	0
407	0	2012-05-23 21:19:00.0	2006-03-15 00:00:00.0	24
408	0	2011-09-02 09:24:00.0	2008-11-08 00:00:00.0	27
409	1	2012-05-21 20:31:00.0	2005-04-25 00:00:00.0	41
410	1	2012-05-22 08:26:00.0	2009-02-13 00:00:00.0	0
411	0	2012-05-05 16:26:00.0	2008-10-22 00:00:00.0	0
412	0	2012-05-20 14:46:00.0	2007-09-23 00:00:00.0	26
413	0	2012-04-03 19:40:00.0	2002-11-25 00:00:00.0	27
414	0	2012-03-13 14:57:00.0	2001-10-22 00:00:00.0	27
415	1	2012-05-25 22:53:00.0	2008-03-17 00:00:00.0	20
416	0	2012-05-15 20:10:00.0	2008-04-16 00:00:00.0	19
417	0	2012-05-24 11:31:00.0	2007-11-14 00:00:00.0	25
418	1	2012-05-25 21:08:00.0	2009-08-29 00:00:00.0	25
419	0	2012-05-25 15:39:00.0	2006-10-29 00:00:00.0	0
420	1	2012-05-25 21:50:00.0	2005-02-24 00:00:00.0	27
421	0	2012-04-20 10:46:00.0	2007-12-23 00:00:00.0	24
422	0	2012-04-01 19:05:00.0	2009-07-01 00:00:00.0	17
423	0	2012-05-25 23:20:01.0	2009-01-20 00:00:00.0	19
424	0	2012-05-25 14:49:00.0	2007-10-13 00:00:00.0	24
425	0	2012-05-25 22:57:00.0	2007-04-11 00:00:00.0	0
426	0	2012-05-23 17:07:00.0	2006-10-07 00:00:00.0	0
427	0	2012-03-01 13:02:00.0	2007-02-24 00:00:00.0	21
428	0	2012-05-24 19:34:00.0	2006-06-08 00:00:00.0	21
429	1	2012-05-23 17:24:00.0	2011-07-13 00:00:00.0	0
430	1	2011-10-03 21:13:00.0	2007-11-30 00:00:00.0	24
431	0	2012-05-17 21:11:00.0	2008-02-11 00:00:00.0	0
432	0	2012-05-04 16:28:00.0	2007-11-09 00:00:00.0	15
433	1	2012-05-23 16:58:00.0	2009-03-10 00:00:00.0	0
434	1	2012-05-25 18:35:00.0	2006-12-01 00:00:00.0	22
435	0	2012-05-24 19:53:00.0	2007-01-16 00:00:00.0	28
436	0	2012-05-25 12:04:00.0	2000-10-02 00:00:00.0	27
437	1	2012-05-24 20:54:00.0	2006-03-16 00:00:00.0	27
438	0	2012-05-15 20:36:00.0	2007-05-29 00:00:00.0	28
439	1	2012-04-17 21:40:00.0	2006-11-28 00:00:00.0	27
440	0	2012-05-25 15:22:00.0	2004-01-04 00:00:00.0	28
441	0	2012-03-05 09:39:00.0	2005-04-11 00:00:00.0	26
442	0	2012-05-20 09:55:00.0	2006-11-04 00:00:00.0	22
443	1	2012-05-22 12:39:00.0	2007-06-09 00:00:00.0	20
444	0	2012-05-24 23:53:00.0	2006-02-11 00:00:00.0	27
445	0	2012-05-21 19:15:00.0	2003-12-12 00:00:00.0	27
446	1	2012-05-21 17:51:00.0	2005-11-19 00:00:00.0	28
447	1	2012-04-04 21:39:00.0	2006-01-07 00:00:00.0	25
448	0	2012-05-23 11:08:00.0	2006-09-21 00:00:00.0	0
449	0	2011-12-22 17:46:00.0	2007-10-12 00:00:00.0	0
450	0	2012-05-10 00:42:00.0	2009-03-04 00:00:00.0	22
451	1	2012-05-25 21:43:00.0	2008-02-26 00:00:00.0	18
452	1	2012-05-23 01:50:00.0	2006-01-19 00:00:00.0	17
453	1	2012-03-10 16:36:00.0	2005-11-04 00:00:00.0	22
454	1	2012-05-25 17:16:00.0	2008-11-30 00:00:00.0	19
455	1	2012-05-25 11:41:00.0	2009-05-06 00:00:00.0	19
456	1	2012-05-23 17:49:00.0	2007-03-23 00:00:00.0	18
457	1	2012-05-19 15:41:00.0	2007-07-13 00:00:00.0	22
458	0	2012-05-01 16:05:00.0	2007-07-28 00:00:00.0	0
459	1	2012-05-24 04:05:00.0	2008-12-14 00:00:00.0	19
460	0	2012-05-25 21:56:00.0	2008-12-12 00:00:00.0	21
461	1	2012-04-26 21:51:00.0	2008-01-22 00:00:00.0	0
462	1	2012-05-21 17:38:00.0	2009-03-02 00:00:00.0	22
463	1	2012-05-14 10:39:00.0	2006-12-25 00:00:00.0	30
464	1	2012-05-25 22:49:00.0	2006-12-21 00:00:00.0	0
465	1	2012-05-24 15:57:00.0	2007-08-28 00:00:00.0	19
466	1	2012-05-23 22:38:00.0	2007-04-08 00:00:00.0	17
467	1	2012-05-25 17:11:00.0	2008-06-29 00:00:00.0	19
468	0	2012-05-23 18:33:00.0	2007-04-24 00:00:00.0	20
469	0	2012-05-24 14:56:00.0	2007-05-22 00:00:00.0	20
470	0	2012-05-25 17:25:00.0	2011-04-13 00:00:00.0	18
471	0	2012-05-25 23:20:01.0	2008-08-05 00:00:00.0	21
472	0	2012-05-24 22:23:00.0	2009-07-15 00:00:00.0	21
473	0	2012-05-25 19:44:00.0	2008-02-20 00:00:00.0	19
474	0	2012-05-24 22:18:00.0	2009-06-12 00:00:00.0	17
475	0	2012-05-25 23:20:05.0	2012-02-14 00:00:00.0	20
476	0	2012-05-22 23:43:00.0	2011-12-13 00:00:00.0	21
477	0	2012-05-18 14:22:00.0	2008-01-29 00:00:00.0	19
478	0	2012-05-21 20:08:00.0	2011-12-01 00:00:00.0	0
479	0	2012-03-02 17:54:00.0	2012-01-21 00:00:00.0	21
480	0	2012-05-24 15:51:00.0	2009-08-14 00:00:00.0	18
481	0	2012-05-25 22:03:00.0	2007-02-08 00:00:00.0	17
482	0	2012-05-25 23:09:00.0	2008-03-26 00:00:00.0	17
483	0	2012-05-24 17:30:00.0	2007-10-31 00:00:00.0	0
484	0	2012-05-07 21:56:00.0	2009-06-23 00:00:00.0	17
485	0	2012-05-24 20:02:00.0	2008-09-05 00:00:00.0	19
486	0	2012-03-28 16:56:00.0	2006-12-01 00:00:00.0	19
487	0	2012-05-21 20:02:00.0	2006-03-16 00:00:00.0	20
488	0	2012-05-25 00:10:00.0	2006-03-17 00:00:00.0	20
489	0	2012-05-25 23:14:00.0	2008-05-28 00:00:00.0	19
490	0	2012-05-25 21:45:00.0	2006-05-29 00:00:00.0	20
491	0	2012-01-09 14:10:00.0	2005-09-28 00:00:00.0	0
492	0	2012-05-25 22:11:00.0	2008-05-19 00:00:00.0	18
493	0	2012-05-24 17:05:00.0	2005-02-01 00:00:00.0	19
494	0	2011-10-06 09:49:00.0	2008-06-01 00:00:00.0	19
495	0	2012-05-04 23:33:00.0	2007-10-29 00:00:00.0	19
496	0	2011-12-07 19:33:00.0	2008-07-03 00:00:00.0	0
497	0	2012-05-20 18:17:00.0	2006-04-29 00:00:00.0	19
498	1	2012-01-30 17:06:00.0	2008-03-19 00:00:00.0	16
499	0	2012-05-25 20:18:00.0	2007-05-04 00:00:00.0	20
500	0	2012-05-06 18:06:00.0	2007-01-19 00:00:00.0	20
